>>> Warning 216 "main.c" Line 73(1,2): Interrupts disabled during call to prevent re-entrancy:  (@delay_ms1)
>>> Warning 216 "main.c" Line 73(1,2): Interrupts disabled during call to prevent re-entrancy:  (LCD_SEND_NIBBLE)
>>> Warning 216 "main.c" Line 73(1,2): Interrupts disabled during call to prevent re-entrancy:  (LCD_SEND_BYTE)
>>> Warning 216 "main.c" Line 73(1,2): Interrupts disabled during call to prevent re-entrancy:  (LCD_PUTC)
      Memory usage:   ROM=8%      RAM=2% - 4%
      0 Errors,  4 Warnings.
Build Successful.
